Pais,Edad,Sueldo,Covid-19
Chile,64,900,Si
Peru,27,1200,No
Argentina,30,1300,No
Peru,38,1500,No
Argentina,70,800,Si
Chile,55,950,Si
Peru,45,1500,No
Chile,68,700,Si
Argentina,50,2000,No
Chile,67,920,Si
